<<if $sexstart is 1>>
	<<set $sexstart to 0>>
	<<consensual>>
	<<set $consensual to 1>>
	<<neutral 1>>
	<<maninit>>
	<<set $enemytrust += 100>>
<</if>>
<<effects>><<set $outside to 1>><<set $location to "beach">>
<<effectsman>><<man>>
<<stateman>>
<br><br>
<<actionsman>>
<<if $finish is 1>>
	<span id="next"><<link[[Next->Beach Day Encounter Sex Finish]]>><</link>></span><<nexttext>>
<<else>>
	<<if $alarm is 1>>
		<<if $rescue is 1>>
		<<else>>
			No one comes to your aid.
			<<set $alarm to 0>>
			<<if $drugged gte 1>>Intoxicated as you are, you couldn't cry very convincingly.<</if>>
			<br><br>
			<<if $enemyarousal gte $enemyarousalmax>>
				<span id="next"><<link [[Next->Beach Day Encounter Sex Ejaculation]]>><</link>></span><<nexttext>>
			<<elseif $enemyhealth lte 0>>
				<span id="next"><<link [[Next->Beach Day Encounter Sex Escape]]>><</link>></span><<nexttext>>
			<<else>>
				<span id="next"><<link [[Next->Beach Day Encounter Sex]]>><</link>></span><<nexttext>>
			<</if>>
		<</if>>
	<<elseif $enemyarousal gte $enemyarousalmax>>
		<span id="next"><<link [[Next->Beach Day Encounter Sex Ejaculation]]>><</link>></span><<nexttext>>
	<<elseif $enemyhealth lte 0>>
		<span id="next"><<link [[Next->Beach Day Encounter Sex Escape]]>><</link>></span><<nexttext>>
	<<else>>
		<span id="next"><<link [[Next->Beach Day Encounter Sex]]>><</link>></span><<nexttext>>
	<</if>>
<</if>>