<<set $outside to 0>><<set $location to "home">><<effects>>
You are in the bathroom.
<br><br>
<<if $stress gte 10000>>
	<<passouthome>>
<<else>>
	<<link [[Have a bath (0:30)->Bath]]>><<strip>><<pass 30>><<stress -6>><<set $hygiene to 0>><</link>><<lstress>>
	<br>
	<!-- Check if the player is female-->
	<<if $penisexist is 0 and $pblevel gte 3 and $pbdisable is "f">>
		<<link [[Shave (0:15)->Shave]]>><<strip>><<pass 15>><<set $pblevel to 0>><<set $pbgrowth to 0>><</link>>
		<br><br>
	<</if>>
	<<link [[Bedroom (0:01)->Bedroom]]>><<pass 1>><</link>>
	<br>
	<<link [[Main hall (0:01)->Orphanage]]>><<pass 1>><</link>>
	<br>
	<<if $NPCName[$NPCNameList.indexOf("Robin")].init is 1 and $exposed lte 0>>
		<<link [[Robin's room (0:01)|Robin's Room Entrance]]>><<pass 1>><</link>>
		<br>
	<</if>>
	<<home_outside>>
	<br>
<</if>>