<<widget "physicalAdjustmentsInit">><<nobr>>

<<if $sexStats is undefined>>
	<<set $sexStats to {
		"breasts": {
			"playedWith": 0
		},
		"creampie": {
			"self": {
				"anus":0,
				"mouth":0,
				"vagina":0
			},
			"npc":{
				"anus":0,
				"mouth":0,
				"vagina":0,
				"tentacle":0
			}
		},
		"pills":{
			"type": ["penis", "breast"],
			"penis": {
				"type": null,
				"doseTaken": null,
				"autoTake": null,
				"overdose": false,
				"owned": {
					"growth": 0,
					"reduction": 0,
					"blocker": 0,
				}
			},
			"breast": {
				"type": null,
				"doseTaken": null,
				"autoTake": null,
				"overdose": false,
				"owned": {
					"growth": 0,
					"reduction": 0,
					"blocker": 0,
				}
			},
			"boughtOnce": false,
		}
	}>>
<</if>>

<<if $sexStats.anus is undefined>>
	<<set $sexStats.anus to {
		"pregnancy": {
			0: null,
			1: null,
			2: null,
			3: null,
			"count": 0,
			"maxCount": 1,
			"fertile": false,
			"fertilised": false,
			"lowestDaysLeft": null,
			"lowestTimeLeft": null,
			"givenBirth": 0,
			"motherStatus": 0,
			"seenDoctor": 0,
			"feltMovement": false,
			"namesChildren": false,
			"autoRepairDone":1,
		}
	}>>
<</if>>

<<if $sexStats.pills.type is undefined>>
	<<set _quantity to [0,0,0,0,0,0]>>
	<<if $sexStats.pills.breastOwned isnot undefined and $sexStats.pills.boughtOnce is true>>
		<<set _quantity[0] to Math.floor($sexStats.pills.penisOwned[5] + ($sexStats.pills.penisOwned[4] / 2))>>
		<<set _quantity[1] to Math.floor($sexStats.pills.penisOwned[0] + ($sexStats.pills.penisOwned[1] / 2))>>
		<<set _quantity[2] to clone($sexStats.pills.penisOwned[2])>>
		<<set _quantity[3] to Math.floor($sexStats.pills.breastOwned[5] + ($sexStats.pills.breastOwned[4] / 2))>>
		<<set _quantity[4] to Math.floor($sexStats.pills.breastOwned[0] + ($sexStats.pills.breastOwned[1] / 2))>>
		<<set _quantity[5] to clone($sexStats.pills.breastOwned[2])>>
	<</if>>
	<<if $sexStats.pills.boughtOnce is true>>
		<<set _boughtOnce to true>>
	<<else>>
		<<set _boughtOnce to false>>
	<</if>>

	<<set $sexStats.pills to {
		"type": ["penis", "breast"],
		"penis": {
			"type": null,
			"doseTaken": null,
			"autoTake": null,
			"overdose": false,
			"owned": {
				"growth": clone(_quantity[0]),
				"reduction": clone(_quantity[1]),
				"blocker": clone(_quantity[2]),
			}
		},
		"breast": {
			"type": null,
			"doseTaken": null,
			"autoTake": null,
			"overdose": false,
			"owned": {
				"growth": clone(_quantity[3]),
				"reduction": clone(_quantity[4]),
				"blocker": clone(_quantity[5]),
			}
		},
		"boughtOnce": _boughtOnce,
	}>>
<</if>>
<<set _pills to $sexStats.pills>>
<<set _pills.penis.owned.growth to Math.clamp(_pills.penis.owned.growth, 0, 1000)>>
<<set _pills.penis.owned.reduction to Math.clamp(_pills.penis.owned.reduction, 0, 1000)>>
<<set _pills.penis.owned.blocker to Math.clamp(_pills.penis.owned.blocker, 0, 1000)>>
<<set _pills.breast.owned.growth to Math.clamp(_pills.breast.owned.growth, 0, 1000)>>
<<set _pills.breast.owned.reduction to Math.clamp(_pills.breast.owned.reduction, 0, 1000)>>
<<set _pills.breast.owned.blocker to Math.clamp(_pills.breast.owned.blocker, 0, 1000)>>

<</nobr>><</widget>>