You've pushed yourself too much.
<br><br>
<<passout>>

<<set $danger to random(1, 10000)>>
<<if $danger gte (9900 - $allure)>>
	<<if $bestialitydisable is "t">>
	<<link [[Wake up|Molestation Hospital]]>><<set $molestationstart to 1>><</link>>
	<<else>>
		<<if $rng gte 81>>
		<<link [[Wake up|Abduction Hospital]]>><</link>>
		<<else>>
		<<link [[Wake up|Molestation Hospital]]>><<set $molestationstart to 1>><</link>>
		<</if>>
	<</if>>
<<else>>
<<link [[Wake up|Hospital Bed]]>><</link>>
<</if>>

<<pass 1 hour>>

<<set $trauma +=10>><<set $stress -= 2000>>