<<set $location to "forest">><<set $outside to 1>><<effects>>

<<He>> shrugs and puts it away. "It's all the same to me. Now come here."
<br><br>

<<link [[Nod|Pub Sex 4]]>><<set $sexstart to 1>><</link>><<promiscuous1>>
<br>

<<if $rng gte 81>>
<<link [[Refuse|Pub Sex 4]]>><<stress 6>><<set $molestationstart to 1>><</link>><<gstress>>
<br>
<<else>>
<<link [[Refuse|Pub Refuse 2]]>><<stress 6>><</link>><<gstress>>
<br>
<</if>>
		<<if $promiscuity gte 35>>
		<<link [[Demand £20 first|Pub Demand]]>><<set $phase to 1>><</link>><<promiscuous3>>
		<br>
		<<link [[Demand £50 first|Pub Demand]]>><<set $phase to 2>><</link>><<promiscuous3>>
		<br>
		<<link [[Demand £100 first|Pub Demand]]>><<set $phase to 3>><</link>><<promiscuous3>>
		<br>
		<</if>>