<<set $outside to 1>><<set $location to "town">><<effects>><<set $bus to "harvest">>
You are on Harvest Street. There's a road leading out of town, and many of the buildings here deal with produce from the nearby farms. This part of town has a reputation for criminal activity.
<<if $daystate is "day">>
	<<if $weather is "rain">>
		There's always at least one large vehicle moving down the road.
	<<else>>
		There's always at least one large vehicle moving down the road.
	<</if>>
<<elseif $daystate is "dawn">>
	Vehicles are already arriving from outside town.
<<elseif $daystate is "dusk">>
	The sun sets, but it will be a while before the workers here are done for the day.
<<elseif $daystate is "night">>
	Even at night the street is busy.
<</if>>
<<streeteffects>>
<br><br>
<<if $exposed gte 1>>
	<<exhibitionism "street">>
<</if>>
<<if $arousal gte 10000>>
	<<orgasmstreet>>
<</if>>
<<if $stress gte 10000>>
	<<passoutstreet>>
<<else>>
	<<set $danger to random(1, 10000)>><<set $dangerevent to 0>>
	<<if $danger gte (9900 - $allure) and $eventskip is 0>>
		<<eventsstreet>>
	<<else>>
		<<if $map.top is true>>
			<<map "harvest">>
			<br>
		<</if>>
		Places of interest
		<br>
		<<if $brothelintro is 1>>
			<<if $exposed gte 1>>
				<<brothelicon>><<link [[Brothel (0:01)|Brothel Exposed]]>><<pass 1>><</link>>
				<br>
			<<else>>
				<<brothelicon>><<link [[Brothel (0:01)|Brothel]]>><<pass 1>><</link>>
				<br>
			<</if>>
		<<elseif $brothelknown is 1 and $exposed lte 0>>
			<<link [[Enter suspicious building (0:05)|Brothel Intro]]>><<set $brothelintro to 1>><<pass 5>><</link>>
			<br>
		<</if>>
		<<if $pubintro is 1 and $exposed lte 0>>
			<<pubicon>><<link [[Pub (0:02)|Pub]]>><<pass 2>><</link>>
			<br>
		<<elseif $exposed lte 0>>
			<<link [[Pub (0:02)|Pub Intro]]>><<pass 2>><</link>>
			<br>
		<</if>>
		<<if $daystate is "night">>
			<<link [[Bus Station (0:02)|Bus Station Entrance]]>><<pass 2>><</link>>
		<<else>>
			<<link [[Bus Station (0:02)|Bus Station]]>><<pass 2>><</link>>
		<</if>>
		<br><br>
		<<link [[Leave town (0:05)|Farm Road 1]]>><<set $phase to 0>><<pass 5>><</link>>
		<br><br>
		<<if $exposed gte 1 and $daystate isnot "night">>
		<<else>>
			<<add_link "Travel<br>">><<hideDisplay>>
			<<mer>>
			<<elk>>
			<<if $exposed lte 0>>
				<<buswait>>
			<</if>>
			<<loiter>>
		<</if>>
		<<add_link "<br>Alternate routes<br>">><<hideDisplay>>
		<<industrial>>
		<<stormdrain>>
		<<displayLinks>>
		<<if $map.top isnot true>>
			<br>
			<<map "harvest">>
		<</if>>
	<</if>>
<</if>>
<<set $eventskip to 0>>