<<widget "danube">><<nobr>>

<<add_link "<<danubeicon>><<link [[Danube Street (0:05) (Mansions)|Danube Street]]>><<pass 5>><</link>><br>">>
<<hideDisplay true>>
<</nobr>><</widget>>

<<widget "danubequick">><<nobr>>

<<link [[Danube Street|Danube Street]]>><</link>>

<</nobr>><</widget>>

<<widget "danubeeventend">><<nobr>>

<<link [[Next|Danube Street]]>><<set $eventskip to 1>><</link>>

<</nobr>><</widget>>