<<if $molestationstart is 1>>
<<set $molestationstart to 0>>
<<controlloss>>
<<violence 1>>
<<neutral 1>>
<<molested>>

<<maninit>>
<<He>> forces you to your knees and <<if $pronoun is "m">>unzips <<his>> fly,<<else>>lifts <<his>> skirt,<</if>> revealing <<his>><<if $NPCList[0].penis isnot "none">>penis<<else>>pussy<</if>>. "Open wide," <<he>> says. <<His>> friends cheer <<him>> on.
<br><br>

<<npcoral>><<set $NPCList[0].lefthand to "hair">><<set $enemyanger to 70>>
<<set $rescue to 1>>
<</if>>

<<if $sexstart is 1>>
<<set $sexstart to 0>>
<<consensual>>
<<set $consensual to 1>>
<<neutral 1>>

<<maninit>>
You drop to your knees as <<he>> <<if $pronoun is "m">>unzips <<his>> fly,<<else>>lifts <<his>> skirt,<</if>> revealing <<his>><<if $NPCList[0].penis isnot "none">>penis<<else>>pussy<</if>>. "Open wide," <<he>> says. <<His>> friends cheer <<him>> on.
<<promiscuity4>>
<br><br>

<<npcoral>><<set $NPCList[0].lefthand to "hair">><<set $enemyanger to 70>>
<<set $rescue to 1>>
<</if>>

<<effects>>

<<effectsman>><<man>>

<<audience>>

<<stateman>>
<br><br>
<<actionsman>>

<<if $alarm is 1 and $rescue is 1>>
	<span id="next"><<link [[Next|Bully Oral Finish]]>><</link>></span><<nexttext>>
<<elseif $enemyhealth lte 0>>
	<span id="next"><<link [[Next|Bully Oral Finish]]>><</link>></span><<nexttext>>
<<elseif $enemyarousal gte $enemyarousalmax>>
	<span id="next"><<link [[Next|Bully Oral Finish]]>><</link>></span><<nexttext>>
<<elseif $finish is 1>>
	<span id="next"><<link [[Next|Bully Oral Finish]]>><</link>></span><<nexttext>>
<<else>>
	<span id="next"><<link [[Next|Bully Oral]]>><</link>></span><<nexttext>>
<</if>>