<<effects>>

You shake <<him>> off. "Aww," <<he>> says. "The little <<girl>> is sensitive. Later loser." <<He>> leaves with <<his>> friends.
<br><br>

<<endevent>>

<<link [[Next|Hallways]]>><<set $eventskip to 1>><</link>>
<br>