<<set $outside to 0>><<set $location to "pool">><<schooleffects>><<effects>>

<<if $timer lte 0 and $orgasmdown gte 1>>
<<npc Mason>><<person1>>Mason asks the class to line up at one side of the pool. You're still shaking from your climax and struggle to keep up.

<<clotheson>>

Mason spots you shivering in the water. <<He>> dives in and shoots towards you, scooping you into <<his>> arms and onto the side of the pool. <<He>> clambers up after you and leans close. "Are you alright?" <<he>> asks.
<br><br>

<<link [[Nod|Swimming Masturbate Nod]]>><</link>>
<br>
<<if $promiscuity gte 15>>
<<link [[Kiss|Swimming Masturbate Kiss]]>><<status 1>><<detention 2>><</link>><<promiscuous2>><<gdelinquency>><<gcool>>
<br>
<</if>>

<<else>>

<<if $timer lte 0>>
Mason asks the class to line up at one side of the pool. You won't continue to get away with it while packed so close to the other students.

<<else>>
Not wanting to risk it further, you rearrange your clothing and sit upright. You don't think anyone noticed.

<</if>>
<br><br>
<<endmasturbation>>
<<clotheson>>
<<endcombat>>

Touching yourself in front of so many unaware people feels fantastic. It takes a while for your racing heart and flushed face to return to normal.
<br><br>

<<water>>
<<pass 5>>
<<schooleffects>>
<<if $time gte ($hour * 60 + 5) and $time lte ($hour * 60 + 57)>>
<<pass 5>>
<<schooleffects>>
<<else>>
<<set $phase to 1>>
<</if>>
<<if $time gte ($hour * 60 + 5) and $time lte ($hour * 60 + 57)>>
<<pass 5>>
<<schooleffects>>
<<else>>
<<set $phase to 1>>
<</if>>
<<if $time gte ($hour * 60 + 5) and $time lte ($hour * 60 + 57)>>
<<pass 5>>
<<schooleffects>>
<<else>>
<<set $phase to 1>>
<</if>>
<<if $time gte ($hour * 60 + 5) and $time lte ($hour * 60 + 57)>>
<<else>>
<<set $phase to 1>>
<</if>>

<<if $phase is 1>>
<<set $phase to 0>>
The bell rings, signifying the end of the lesson. You leave the classroom.
<br><br>
<<if $time is ($hour * 60 + 57)>>
<<pass 3>>
<<elseif $time is ($hour * 60 + 58)>>
<<pass 2>>
<<elseif $time is ($hour * 60 + 59)>>
<<pass 1>>
<</if>>

	<<if $exposed lte 0>>
	<<link [[Boy's Changing Room|School Boy Changing Room]]>><</link>>
	<br>

	<<link [[Girl's Changing Room|School Girl Changing Room]]>><</link>>
	<br><br>
	<</if>>

	<<if $exposed gte 1>>
	<<link [[Grab some towels and enter the boy's changing room|School Boy Changing Room]]>><<towelupm>><</link>>
	<br>
	<<link [[Grab some towels and enter the girl's changing room|School Girl Changing Room]]>><<towelup>><</link>>
	<br><br>
	<</if>>

<<else>>
	<<if $exposed gte 1>>

	<<set $danger to random(1, 10000)>><<set $dangerevent to 0>>
		<<if $danger gte (8900 - ($allure / 2))>>
		<<eventsswimming>>
		<<else>>
		<<eventsswimmingsafe>>
		<</if>>

	<<elseif $exposed lte 0>>

	<<set $danger to random(1, 10000)>><<set $dangerevent to 0>>
		<<if $danger gte (8900 - ($allure / 10))>>
		<<eventsswimming>>
		<<else>>
		<<eventsswimmingsafe>>
		<</if>>
	<</if>>

<</if>>

<</if>>