<<set $outside to 1>><<set $location to "lake">><<effects>><<lakeeffects>>
<<if $rng gte 81>>
	You shove <<him>> off you. <<He>> sneers and climbs back on, gagging your mouth with <<his>> hand. "Don't try that again <<bitchcomma>>" <<he>> says. "This is happening."
	<br><br>
	<<link [[Next|Lake Hang Sex]]>><<set $molestationstart to 1>><</link>>
	<br>
<<else>>
	You shove <<him>> off you. <<He>> shrugs and leaves to find someone else to pester.
	<br><br>
	<<endevent>>
	<<link [[Hang out (0:30)|Lake Hang]]>><<pass 30>><<stress -6>><<status 1>><</link>><<gcool>><<lstress>>
	<br>
	<<link [[Stop|Lake Shore]]>><</link>>
	<br>
<</if>>