<<if $sexstart is 1>>
	<<set $sexstart to 0>>
	<<consensual>>
	<<set $consensual to 1>>
	<<neutral 1>>
	
	<<maninit>>
	
	<<set $rescue to 1>>
<</if>>
<<effects>>
<<effectsman>><<man>>
<<stateman>>
<br><br>
<<actionsman>>
<<if $finish is 1>>
	<span id="next"><<link [[Next|Farm Tending Sex Finish]]>><</link>></span><<nexttext>>
<<elseif $enemyhealth lte 0>>
	<span id="next"><<link [[Next|Farm Tending Sex Finish]]>><</link>></span><<nexttext>>
<<elseif $enemyarousal gte $enemyarousalmax>>
	<span id="next"><<link [[Next|Farm Tending Sex Finish]]>><</link>></span><<nexttext>>
<<elseif $rescue is 1 and $alarm is 1>>
	<span id="next"><<link [[Next|Farm Tending Sex Finish]]>><</link>></span><<nexttext>>
<<else>>
	<span id="next"><<link [[Next|Farm Tending Sex]]>><</link>></span><<nexttext>>
<</if>>